<svg xmlns="http://www.w3.org/2000/svg" viewBox="0 0 8 8">
  <defs>
    <style>
      .cls-1 {
        fill: #ed1e45;
        stroke: #fff;
        stroke-width: 2px;
      }

      .cls-2 {
        stroke: none;
      }

      .cls-3 {
        fill: none;
      }
    </style>
  </defs>
  <g id="Ellipse_8" data-name="Ellipse 8" class="cls-1" transform="translate(0)">
    <circle class="cls-2" cx="4" cy="4" r="4"/>
    <circle class="cls-3" cx="4" cy="4" r="3"/>
  </g>
</svg>
